{
    "tags": {
        "allowUnknownTags": true,
        "dictionaries": ["jsdoc", "closure"]
    },
    "source": {
        "include": ["src"],
        "includePattern": ".+\\.js(doc|x)?$",
        "excludePattern": "(^|\\/|\\\\)_"
    },
    "plugins": ["plugins/markdown"],

    "opts": {
        "template": "node_modules/docdash",
        "destination": "docs",
        "recurse": true,
        "verbose": true,
        "readme": "README.md"
    },
    "templates": {
        "cleverLinks": false,
        "monospaceLinks": false
    }
}
